{
  "formatVersion": 1,
  "database": {
    "version": 10,
    "identityHash": "8ef3f25cc1f8b3aae6cd1b65a0a8e99f",
    "entities": [
      {
        "tableName": "cards_table",
        "createSql": "CREATE TABLE IF NOT EXISTS `${TABLE_NAME}` (`card_id` INTEGER PRIMARY KEY AUTOINCREMENT NOT NULL, `question` TEXT, `answer` TEXT, `last_repetition_date` INTEGER, `first_added_timestamp` INTEGER, `deck_id` INTEGER, FOREIGN KEY(`deck_id`) REFERENCES `decks_table`(`deck_id`) ON UPDATE NO ACTION ON DELETE CASCADE )",
        "fields": [
          {
            "fieldPath": "mCardId",
            "columnName": "card_id",
            "affinity": "INTEGER",
            "notNull": true
          },
          {
            "fieldPath": "mQuestion",
            "columnName": "question",
            "affinity": "TEXT",
            "notNull": false
          },
          {
            "fieldPath": "mAnswer",
            "columnName": "answer",
            "affinity": "TEXT",
            "notNull": false
          },
          {
            "fieldPath": "mLastRepetitionDate",
            "columnName": "last_repetition_date",
            "affinity": "INTEGER",
            "notNull": false
          },
          {
            "fieldPath": "mFirstAddedTimestamp",
            "columnName": "first_added_timestamp",
            "affinity": "INTEGER",
            "notNull": false
          },
          {
            "fieldPath": "mDeckId",
            "columnName": "deck_id",
            "affinity": "INTEGER",
            "notNull": false
          }
        ],
        "primaryKey": {
          "columnNames": [
            "card_id"
          ],
          "autoGenerate": true
        },
        "indices": [],
        "foreignKeys": [
          {
            "table": "decks_table",
            "onDelete": "CASCADE",
            "onUpdate": "NO ACTION",
            "columns": [
              "deck_id"
            ],
            "referencedColumns": [
              "deck_id"
            ]
          }
        ]
      },
      {
        "tableName": "decks_table",
        "createSql": "CREATE TABLE IF NOT EXISTS `${TABLE_NAME}` (`deck_id` INTEGER PRIMARY KEY AUTOINCREMENT NOT NULL, `number` INTEGER, `repetition_interval` INTEGER, `last_repetition_timestamp` INTEGER, `next_repetition_timestamp` INTEGER)",
        "fields": [
          {
            "fieldPath": "mDeckId",
            "columnName": "deck_id",
            "affinity": "INTEGER",
            "notNull": true
          },
          {
            "fieldPath": "mNumber",
            "columnName": "number",
            "affinity": "INTEGER",
            "notNull": false
          },
          {
            "fieldPath": "mRepetitionInterval",
            "columnName": "repetition_interval",
            "affinity": "INTEGER",
            "notNull": false
          },
          {
            "fieldPath": "mLastRepetitionTimestamp",
            "columnName": "last_repetition_timestamp",
            "affinity": "INTEGER",
            "notNull": false
          },
          {
            "fieldPath": "mNextRepetitionTimestamp",
            "columnName": "next_repetition_timestamp",
            "affinity": "INTEGER",
            "notNull": false
          }
        ],
        "primaryKey": {
          "columnNames": [
            "deck_id"
          ],
          "autoGenerate": true
        },
        "indices": [],
        "foreignKeys": []
      },
      {
        "tableName": "session_logs_table",
        "createSql": "CREATE TABLE IF NOT EXISTS `${TABLE_NAME}` (`session_log_id` INTEGER PRIMARY KEY AUTOINCREMENT NOT NULL, `session_start_timestamp` INTEGER, `session_end_timestamp` INTEGER, `added_cards_count` INTEGER, `reviewed_cards_count` INTEGER, `memorized_cards_count` INTEGER, `review_frequency_budget` REAL)",
        "fields": [
          {
            "fieldPath": "mSessionLogId",
            "columnName": "session_log_id",
            "affinity": "INTEGER",
            "notNull": true
          },
          {
            "fieldPath": "mSessionStartTimestamp",
            "columnName": "session_start_timestamp",
            "affinity": "INTEGER",
            "notNull": false
          },
          {
            "fieldPath": "mSessionEndTimestamp",
            "columnName": "session_end_timestamp",
            "affinity": "INTEGER",
            "notNull": false
          },
          {
            "fieldPath": "mAddedCardsCount",
            "columnName": "added_cards_count",
            "affinity": "INTEGER",
            "notNull": false
          },
          {
            "fieldPath": "mReviewedCardsCount",
            "columnName": "reviewed_cards_count",
            "affinity": "INTEGER",
            "notNull": false
          },
          {
            "fieldPath": "mMemorizedCardsCount",
            "columnName": "memorized_cards_count",
            "affinity": "INTEGER",
            "notNull": false
          },
          {
            "fieldPath": "mReviewFrequencyBudget",
            "columnName": "review_frequency_budget",
            "affinity": "REAL",
            "notNull": false
          }
        ],
        "primaryKey": {
          "columnNames": [
            "session_log_id"
          ],
          "autoGenerate": true
        },
        "indices": [],
        "foreignKeys": []
      },
      {
        "tableName": "review_logs_table",
        "createSql": "CREATE TABLE IF NOT EXISTS `${TABLE_NAME}` (`review_log_id` INTEGER PRIMARY KEY AUTOINCREMENT NOT NULL, `session_log_id` INTEGER, `new_deck_id` INTEGER, `timestamp` INTEGER, FOREIGN KEY(`session_log_id`) REFERENCES `session_logs_table`(`session_log_id`) ON UPDATE NO ACTION ON DELETE CASCADE , FOREIGN KEY(`new_deck_id`) REFERENCES `decks_table`(`deck_id`) ON UPDATE NO ACTION ON DELETE CASCADE )",
        "fields": [
          {
            "fieldPath": "mReviewLogId",
            "columnName": "review_log_id",
            "affinity": "INTEGER",
            "notNull": true
          },
          {
            "fieldPath": "mSessionLogId",
            "columnName": "session_log_id",
            "affinity": "INTEGER",
            "notNull": false
          },
          {
            "fieldPath": "mNewDeckId",
            "columnName": "new_deck_id",
            "affinity": "INTEGER",
            "notNull": false
          },
          {
            "fieldPath": "mTimestamp",
            "columnName": "timestamp",
            "affinity": "INTEGER",
            "notNull": false
          }
        ],
        "primaryKey": {
          "columnNames": [
            "review_log_id"
          ],
          "autoGenerate": true
        },
        "indices": [],
        "foreignKeys": [
          {
            "table": "session_logs_table",
            "onDelete": "CASCADE",
            "onUpdate": "NO ACTION",
            "columns": [
              "session_log_id"
            ],
            "referencedColumns": [
              "session_log_id"
            ]
          },
          {
            "table": "decks_table",
            "onDelete": "CASCADE",
            "onUpdate": "NO ACTION",
            "columns": [
              "new_deck_id"
            ],
            "referencedColumns": [
              "deck_id"
            ]
          }
        ]
      }
    ],
    "views": [],
    "setupQueries": [
      "CREATE TABLE IF NOT EXISTS room_master_table (id INTEGER PRIMARY KEY,identity_hash TEXT)",
      "INSERT OR REPLACE INTO room_master_table (id,identity_hash) VALUES(42, \"8ef3f25cc1f8b3aae6cd1b65a0a8e99f\")"
    ]
  }
}