{
  "formatVersion": 1,
  "database": {
    "version": 3,
    "identityHash": "7b67a2e3ba6a2ac0fec77c5ee328d19d",
    "entities": [
      {
        "tableName": "cards_table",
        "createSql": "CREATE TABLE IF NOT EXISTS `${TABLE_NAME}` (`id` INTEGER PRIMARY KEY AUTOINCREMENT NOT NULL, `word` TEXT NOT NULL, `translation` TEXT NOT NULL, `next_repetition_date` INTEGER NOT NULL)",
        "fields": [
          {
            "fieldPath": "mId",
            "columnName": "id",
            "affinity": "INTEGER",
            "notNull": true
          },
          {
            "fieldPath": "mWord",
            "columnName": "word",
            "affinity": "TEXT",
            "notNull": true
          },
          {
            "fieldPath": "mTranslation",
            "columnName": "translation",
            "affinity": "TEXT",
            "notNull": true
          },
          {
            "fieldPath": "mNextRepetitionDate",
            "columnName": "next_repetition_date",
            "affinity": "INTEGER",
            "notNull": true
          }
        ],
        "primaryKey": {
          "columnNames": [
            "id"
          ],
          "autoGenerate": true
        },
        "indices": [],
        "foreignKeys": []
      }
    ],
    "setupQueries": [
      "CREATE TABLE IF NOT EXISTS room_master_table (id INTEGER PRIMARY KEY,identity_hash TEXT)",
      "INSERT OR REPLACE INTO room_master_table (id,identity_hash) VALUES(42, \"7b67a2e3ba6a2ac0fec77c5ee328d19d\")"
    ]
  }
}