{
  "formatVersion": 1,
  "database": {
    "version": 4,
    "identityHash": "b4945b96549b897bd6e97b2e3b09dffc",
    "entities": [
      {
        "tableName": "cards_table",
        "createSql": "CREATE TABLE IF NOT EXISTS `${TABLE_NAME}` (`id` INTEGER PRIMARY KEY AUTOINCREMENT NOT NULL, `question` TEXT NOT NULL, `translation` TEXT NOT NULL, `next_repetition_date` INTEGER NOT NULL)",
        "fields": [
          {
            "fieldPath": "mId",
            "columnName": "id",
            "affinity": "INTEGER",
            "notNull": true
          },
          {
            "fieldPath": "mQuestion",
            "columnName": "question",
            "affinity": "TEXT",
            "notNull": true
          },
          {
            "fieldPath": "mTranslation",
            "columnName": "translation",
            "affinity": "TEXT",
            "notNull": true
          },
          {
            "fieldPath": "mNextRepetitionDate",
            "columnName": "next_repetition_date",
            "affinity": "INTEGER",
            "notNull": true
          }
        ],
        "primaryKey": {
          "columnNames": [
            "id"
          ],
          "autoGenerate": true
        },
        "indices": [],
        "foreignKeys": []
      }
    ],
    "setupQueries": [
      "CREATE TABLE IF NOT EXISTS room_master_table (id INTEGER PRIMARY KEY,identity_hash TEXT)",
      "INSERT OR REPLACE INTO room_master_table (id,identity_hash) VALUES(42, \"b4945b96549b897bd6e97b2e3b09dffc\")"
    ]
  }
}